<?xml version="1.0" encoding="utf-8"?>
<!DOCTYPE eagle SYSTEM "eagle.dtd">
<eagle version="6.5.0">
<drawing>
<settings>
<setting alwaysvectorfont="no"/>
<setting verticaltext="up"/>
</settings>
<grid distance="0.1" unitdist="inch" unit="inch" style="lines" multiple="1" display="no" altdistance="0.01" altunitdist="inch" altunit="inch"/>
<layers>
<layer number="1" name="Top" color="4" fill="1" visible="no" active="no"/>
<layer number="16" name="Bottom" color="1" fill="1" visible="no" active="no"/>
<layer number="17" name="Pads" color="2" fill="1" visible="no" active="no"/>
<layer number="18" name="Vias" color="2" fill="1" visible="no" active="no"/>
<layer number="19" name="Unrouted" color="6" fill="1" visible="no" active="no"/>
<layer number="20" name="Dimension" color="15" fill="1" visible="no" active="no"/>
<layer number="21" name="tPlace" color="7" fill="1" visible="no" active="no"/>
<layer number="22" name="bPlace" color="7" fill="1" visible="no" active="no"/>
<layer number="23" name="tOrigins" color="15" fill="1" visible="no" active="no"/>
<layer number="24" name="bOrigins" color="15" fill="1" visible="no" active="no"/>
<layer number="25" name="tNames" color="7" fill="1" visible="no" active="no"/>
<layer number="26" name="bNames" color="7" fill="1" visible="no" active="no"/>
<layer number="27" name="tValues" color="7" fill="1" visible="no" active="no"/>
<layer number="28" name="bValues" color="7" fill="1" visible="no" active="no"/>
<layer number="29" name="tStop" color="7" fill="3" visible="no" active="no"/>
<layer number="30" name="bStop" color="7" fill="6" visible="no" active="no"/>
<layer number="31" name="tCream" color="7" fill="4" visible="no" active="no"/>
<layer number="32" name="bCream" color="7" fill="5" visible="no" active="no"/>
<layer number="33" name="tFinish" color="6" fill="3" visible="no" active="no"/>
<layer number="34" name="bFinish" color="6" fill="6" visible="no" active="no"/>
<layer number="35" name="tGlue" color="7" fill="4" visible="no" active="no"/>
<layer number="36" name="bGlue" color="7" fill="5" visible="no" active="no"/>
<layer number="37" name="tTest" color="7" fill="1" visible="no" active="no"/>
<layer number="38" name="bTest" color="7" fill="1" visible="no" active="no"/>
<layer number="39" name="tKeepout" color="4" fill="11" visible="no" active="no"/>
<layer number="40" name="bKeepout" color="1" fill="11" visible="no" active="no"/>
<layer number="41" name="tRestrict" color="4" fill="10" visible="no" active="no"/>
<layer number="42" name="bRestrict" color="1" fill="10" visible="no" active="no"/>
<layer number="43" name="vRestrict" color="2" fill="10" visible="no" active="no"/>
<layer number="44" name="Drills" color="7" fill="1" visible="no" active="no"/>
<layer number="45" name="Holes" color="7" fill="1" visible="no" active="no"/>
<layer number="46" name="Milling" color="3" fill="1" visible="no" active="no"/>
<layer number="47" name="Measures" color="7" fill="1" visible="no" active="no"/>
<layer number="48" name="Document" color="7" fill="1" visible="no" active="no"/>
<layer number="49" name="Reference" color="7" fill="1" visible="no" active="no"/>
<layer number="50" name="dxf" color="7" fill="1" visible="no" active="no"/>
<layer number="51" name="tDocu" color="7" fill="1" visible="no" active="no"/>
<layer number="52" name="bDocu" color="7" fill="1" visible="no" active="no"/>
<layer number="53" name="tGND_GNDA" color="7" fill="9" visible="no" active="no"/>
<layer number="54" name="bGND_GNDA" color="1" fill="9" visible="no" active="no"/>
<layer number="56" name="wert" color="7" fill="1" visible="no" active="no"/>
<layer number="91" name="Nets" color="2" fill="1" visible="yes" active="yes"/>
<layer number="92" name="Busses" color="1" fill="1" visible="yes" active="yes"/>
<layer number="93" name="Pins" color="2" fill="1" visible="no" active="yes"/>
<layer number="94" name="Symbols" color="4" fill="1" visible="yes" active="yes"/>
<layer number="95" name="Names" color="7" fill="1" visible="yes" active="yes"/>
<layer number="96" name="Values" color="7" fill="1" visible="yes" active="yes"/>
<layer number="97" name="Info" color="7" fill="1" visible="yes" active="yes"/>
<layer number="98" name="Guide" color="6" fill="1" visible="yes" active="yes"/>
<layer number="100" name="Muster" color="7" fill="1" visible="no" active="no"/>
<layer number="101" name="Patch_Top" color="12" fill="4" visible="no" active="yes"/>
<layer number="102" name="Vscore" color="7" fill="1" visible="no" active="yes"/>
<layer number="103" name="tMap" color="7" fill="1" visible="no" active="yes"/>
<layer number="104" name="Name" color="16" fill="1" visible="no" active="yes"/>
<layer number="105" name="tPlate" color="7" fill="1" visible="no" active="yes"/>
<layer number="106" name="bPlate" color="7" fill="1" visible="no" active="yes"/>
<layer number="107" name="Crop" color="7" fill="1" visible="no" active="yes"/>
<layer number="108" name="tplace-old" color="10" fill="1" visible="yes" active="yes"/>
<layer number="109" name="ref-old" color="11" fill="1" visible="yes" active="yes"/>
<layer number="116" name="Patch_BOT" color="9" fill="4" visible="no" active="yes"/>
<layer number="121" name="_tsilk" color="7" fill="1" visible="no" active="yes"/>
<layer number="122" name="_bsilk" color="7" fill="1" visible="no" active="yes"/>
<layer number="125" name="_tNames" color="7" fill="1" visible="no" active="yes"/>
<layer number="144" name="Drill_legend" color="7" fill="1" visible="no" active="yes"/>
<layer number="151" name="HeatSink" color="7" fill="1" visible="no" active="yes"/>
<layer number="199" name="Contour" color="7" fill="1" visible="yes" active="yes"/>
<layer number="200" name="200bmp" color="1" fill="10" visible="no" active="yes"/>
<layer number="201" name="201bmp" color="2" fill="10" visible="no" active="yes"/>
<layer number="202" name="202bmp" color="3" fill="10" visible="no" active="yes"/>
<layer number="203" name="203bmp" color="4" fill="10" visible="no" active="yes"/>
<layer number="204" name="204bmp" color="5" fill="10" visible="no" active="yes"/>
<layer number="205" name="205bmp" color="6" fill="10" visible="no" active="yes"/>
<layer number="206" name="206bmp" color="7" fill="10" visible="no" active="yes"/>
<layer number="207" name="207bmp" color="8" fill="10" visible="no" active="yes"/>
<layer number="208" name="208bmp" color="9" fill="10" visible="no" active="yes"/>
<layer number="209" name="209bmp" color="7" fill="1" visible="no" active="yes"/>
<layer number="210" name="210bmp" color="7" fill="1" visible="no" active="yes"/>
<layer number="211" name="211bmp" color="7" fill="1" visible="no" active="yes"/>
<layer number="212" name="212bmp" color="7" fill="1" visible="no" active="yes"/>
<layer number="213" name="213bmp" color="7" fill="1" visible="no" active="yes"/>
<layer number="214" name="214bmp" color="7" fill="1" visible="no" active="yes"/>
<layer number="215" name="215bmp" color="7" fill="1" visible="no" active="yes"/>
<layer number="216" name="216bmp" color="7" fill="1" visible="no" active="yes"/>
<layer number="217" name="217bmp" color="18" fill="1" visible="no" active="no"/>
<layer number="218" name="218bmp" color="19" fill="1" visible="no" active="no"/>
<layer number="219" name="219bmp" color="20" fill="1" visible="no" active="no"/>
<layer number="220" name="220bmp" color="21" fill="1" visible="no" active="no"/>
<layer number="221" name="221bmp" color="22" fill="1" visible="no" active="no"/>
<layer number="222" name="222bmp" color="23" fill="1" visible="no" active="no"/>
<layer number="223" name="223bmp" color="24" fill="1" visible="no" active="no"/>
<layer number="224" name="224bmp" color="25" fill="1" visible="no" active="no"/>
<layer number="250" name="Descript" color="3" fill="1" visible="no" active="no"/>
<layer number="251" name="SMDround" color="12" fill="11" visible="no" active="no"/>
<layer number="254" name="cooling" color="7" fill="1" visible="no" active="yes"/>
</layers>
<schematic xreflabel="%F%N/%S.%C%R" xrefpart="/%S.%C%R">
<libraries>
<library name="HHJ">
<description>Harrison H. Jones' Eagle Library</description>
<packages>
<package name="SOIC-16">
<smd name="P$16" x="0" y="4.7" dx="2" dy="0.6" layer="1" rot="R90"/>
<smd name="P$15" x="1.27" y="4.7" dx="2" dy="0.6" layer="1" rot="R90"/>
<smd name="P$14" x="2.54" y="4.7" dx="2" dy="0.6" layer="1" rot="R90"/>
<smd name="P$13" x="3.81" y="4.7" dx="2" dy="0.6" layer="1" rot="R90"/>
<smd name="P$12" x="5.08" y="4.7" dx="2" dy="0.6" layer="1" rot="R90"/>
<smd name="P$11" x="6.35" y="4.7" dx="2" dy="0.6" layer="1" rot="R90"/>
<smd name="P$10" x="7.62" y="4.7" dx="2" dy="0.6" layer="1" rot="R90"/>
<smd name="P$1" x="0" y="-4.7" dx="2" dy="0.6" layer="1" rot="R90"/>
<smd name="P$2" x="1.27" y="-4.7" dx="2" dy="0.6" layer="1" rot="R90"/>
<smd name="P$3" x="2.54" y="-4.7" dx="2" dy="0.6" layer="1" rot="R90"/>
<smd name="P$4" x="3.81" y="-4.7" dx="2" dy="0.6" layer="1" rot="R90"/>
<smd name="P$5" x="5.08" y="-4.7" dx="2" dy="0.6" layer="1" rot="R90"/>
<smd name="P$6" x="6.35" y="-4.7" dx="2" dy="0.6" layer="1" rot="R90"/>
<smd name="P$7" x="7.62" y="-4.7" dx="2" dy="0.6" layer="1" rot="R90"/>
<smd name="P$8" x="8.89" y="-4.7" dx="2" dy="0.6" layer="1" rot="R90"/>
<smd name="P$9" x="8.89" y="4.7" dx="2" dy="0.6" layer="1" rot="R90"/>
<wire x1="-0.5" y1="3.5" x2="9.5" y2="3.5" width="0.127" layer="21"/>
<wire x1="9.5" y1="3.5" x2="9.5" y2="-3.5" width="0.127" layer="21"/>
<wire x1="9.5" y1="-3.5" x2="-0.5" y2="-3.5" width="0.127" layer="21"/>
<wire x1="-0.5" y1="-3.5" x2="-0.5" y2="3.5" width="0.127" layer="21"/>
<circle x="0.5" y="-2.5" radius="0.5" width="0.127" layer="21"/>
<text x="5.08" y="1.905" size="1.27" layer="21" font="vector" align="center">&gt;NAME</text>
<text x="5.08" y="-0.635" size="1.27" layer="21" font="vector" align="center">&gt;VALUE</text>
</package>
</packages>
<symbols>
<symbol name="BQ24450">
<pin name="ISNS" x="-22.86" y="2.54" length="middle"/>
<pin name="ISNSM" x="-5.08" y="20.32" length="middle" rot="R270"/>
<pin name="ISNSP" x="-7.62" y="20.32" length="middle" rot="R270"/>
<pin name="IFB" x="0" y="20.32" length="middle" rot="R270"/>
<pin name="IN" x="-22.86" y="5.08" length="middle"/>
<pin name="GND" x="-5.08" y="-20.32" length="middle" rot="R90"/>
<pin name="!PGOOD" x="22.86" y="-5.08" length="middle" rot="R180"/>
<pin name="BSTOP" x="-22.86" y="-2.54" length="middle"/>
<pin name="STAT2" x="-22.86" y="-5.08" length="middle"/>
<pin name="STAT1" x="22.86" y="-2.54" length="middle" rot="R180"/>
<pin name="PRE_CHG" x="22.86" y="5.08" length="middle" rot="R180"/>
<pin name="CE" x="22.86" y="2.54" length="middle" rot="R180"/>
<pin name="VFB" x="22.86" y="0" length="middle" rot="R180"/>
<pin name="COMP" x="5.08" y="-20.32" length="middle" rot="R90"/>
<pin name="DRVE" x="10.16" y="20.32" length="middle" rot="R270"/>
<pin name="DRVC" x="7.62" y="20.32" length="middle" rot="R270"/>
<wire x1="-17.78" y1="15.24" x2="17.78" y2="15.24" width="0.254" layer="94"/>
<wire x1="17.78" y1="15.24" x2="17.78" y2="-15.24" width="0.254" layer="94"/>
<wire x1="17.78" y1="-15.24" x2="-17.78" y2="-15.24" width="0.254" layer="94"/>
<wire x1="-17.78" y1="-15.24" x2="-17.78" y2="15.24" width="0.254" layer="94"/>
<text x="0" y="0" size="1.778" layer="94" font="vector" align="center">bq24450</text>
</symbol>
</symbols>
<devicesets>
<deviceset name="BQ24450">
<gates>
<gate name="G$1" symbol="BQ24450" x="0" y="0"/>
</gates>
<devices>
<device name="" package="SOIC-16">
<connects>
<connect gate="G$1" pin="!PGOOD" pad="P$7"/>
<connect gate="G$1" pin="BSTOP" pad="P$8"/>
<connect gate="G$1" pin="CE" pad="P$12"/>
<connect gate="G$1" pin="COMP" pad="P$14"/>
<connect gate="G$1" pin="DRVC" pad="P$16"/>
<connect gate="G$1" pin="DRVE" pad="P$15"/>
<connect gate="G$1" pin="GND" pad="P$6"/>
<connect gate="G$1" pin="IFB" pad="P$4"/>
<connect gate="G$1" pin="IN" pad="P$5"/>
<connect gate="G$1" pin="ISNS" pad="P$1"/>
<connect gate="G$1" pin="ISNSM" pad="P$2"/>
<connect gate="G$1" pin="ISNSP" pad="P$3"/>
<connect gate="G$1" pin="PRE_CHG" pad="P$11"/>
<connect gate="G$1" pin="STAT1" pad="P$10"/>
<connect gate="G$1" pin="STAT2" pad="P$9"/>
<connect gate="G$1" pin="VFB" pad="P$13"/>
</connects>
<technologies>
<technology name=""/>
</technologies>
</device>
</devices>
</deviceset>
</devicesets>
</library>
<library name="SparkFun-Connectors">
<description>&lt;h3&gt;SparkFun Electronics' preferred foot prints&lt;/h3&gt;
In this library you'll find connectors and sockets- basically anything that can be plugged into or onto.&lt;br&gt;&lt;br&gt;
We've spent an enormous amount of time creating and checking these footprints and parts, but it is the end user's responsibility to ensure correctness and suitablity for a given componet or application. If you enjoy using this library, please buy one of our products at www.sparkfun.com.
&lt;br&gt;&lt;br&gt;
&lt;b&gt;Licensing:&lt;/b&gt; CC v3.0 Share-Alike You are welcome to use this library for commercial purposes. For attribution, we ask that when you begin to sell your device using our footprint, you email us with a link to the product being sold. We want bragging rights that we helped (in a very small part) to create your 8th world wonder. We would like the opportunity to feature your device on our homepage.</description>
<packages>
<package name="1X08">
<wire x1="14.605" y1="1.27" x2="15.875" y2="1.27" width="0.2032" layer="21"/>
<wire x1="15.875" y1="1.27" x2="16.51" y2="0.635" width="0.2032" layer="21"/>
<wire x1="16.51" y1="-0.635" x2="15.875" y2="-1.27" width="0.2032" layer="21"/>
<wire x1="11.43" y1="0.635" x2="12.065" y2="1.27" width="0.2032" layer="21"/>
<wire x1="12.065" y1="1.27" x2="13.335" y2="1.27" width="0.2032" layer="21"/>
<wire x1="13.335" y1="1.27" x2="13.97" y2="0.635" width="0.2032" layer="21"/>
<wire x1="13.97" y1="-0.635" x2="13.335" y2="-1.27" width="0.2032" layer="21"/>
<wire x1="13.335" y1="-1.27" x2="12.065" y2="-1.27" width="0.2032" layer="21"/>
<wire x1="12.065" y1="-1.27" x2="11.43" y2="-0.635" width="0.2032" layer="21"/>
<wire x1="14.605" y1="1.27" x2="13.97" y2="0.635" width="0.2032" layer="21"/>
<wire x1="13.97" y1="-0.635" x2="14.605" y2="-1.27" width="0.2032" layer="21"/>
<wire x1="15.875" y1="-1.27" x2="14.605" y2="-1.27" width="0.2032" layer="21"/>
<wire x1="6.985" y1="1.27" x2="8.255" y2="1.27" width="0.2032" layer="21"/>
<wire x1="8.255" y1="1.27" x2="8.89" y2="0.635" width="0.2032" layer="21"/>
<wire x1="8.89" y1="-0.635" x2="8.255" y2="-1.27" width="0.2032" layer="21"/>
<wire x1="8.89" y1="0.635" x2="9.525" y2="1.27" width="0.2032" layer="21"/>
<wire x1="9.525" y1="1.27" x2="10.795" y2="1.27" width="0.2032" layer="21"/>
<wire x1="10.795" y1="1.27" x2="11.43" y2="0.635" width="0.2032" layer="21"/>
<wire x1="11.43" y1="-0.635" x2="10.795" y2="-1.27" width="0.2032" layer="21"/>
<wire x1="10.795" y1="-1.27" x2="9.525" y2="-1.27" width="0.2032" layer="21"/>
<wire x1="9.525" y1="-1.27" x2="8.89" y2="-0.635" width="0.2032" layer="21"/>
<wire x1="3.81" y1="0.635" x2="4.445" y2="1.27" width="0.2032" layer="21"/>
<wire x1="4.445" y1="1.27" x2="5.715" y2="1.27" width="0.2032" layer="21"/>
<wire x1="5.715" y1="1.27" x2="6.35" y2="0.635" width="0.2032" layer="21"/>
<wire x1="6.35" y1="-0.635" x2="5.715" y2="-1.27" width="0.2032" layer="21"/>
<wire x1="5.715" y1="-1.27" x2="4.445" y2="-1.27" width="0.2032" layer="21"/>
<wire x1="4.445" y1="-1.27" x2="3.81" y2="-0.635" width="0.2032" layer="21"/>
<wire x1="6.985" y1="1.27" x2="6.35" y2="0.635" width="0.2032" layer="21"/>
<wire x1="6.35" y1="-0.635" x2="6.985" y2="-1.27" width="0.2032" layer="21"/>
<wire x1="8.255" y1="-1.27" x2="6.985" y2="-1.27" width="0.2032" layer="21"/>
<wire x1="-0.635" y1="1.27" x2="0.635" y2="1.27" width="0.2032" layer="21"/>
<wire x1="0.635" y1="1.27" x2="1.27" y2="0.635" width="0.2032" layer="21"/>
<wire x1="1.27" y1="-0.635" x2="0.635" y2="-1.27" width="0.2032" layer="21"/>
<wire x1="1.27" y1="0.635" x2="1.905" y2="1.27" width="0.2032" layer="21"/>
<wire x1="1.905" y1="1.27" x2="3.175" y2="1.27" width="0.2032" layer="21"/>
<wire x1="3.175" y1="1.27" x2="3.81" y2="0.635" width="0.2032" layer="21"/>
<wire x1="3.81" y1="-0.635" x2="3.175" y2="-1.27" width="0.2032" layer="21"/>
<wire x1="3.175" y1="-1.27" x2="1.905" y2="-1.27" width="0.2032" layer="21"/>
<wire x1="1.905" y1="-1.27" x2="1.27" y2="-0.635" width="0.2032" layer="21"/>
<wire x1="-1.27" y1="0.635" x2="-1.27" y2="-0.635" width="0.2032" layer="21"/>
<wire x1="-0.635" y1="1.27" x2="-1.27" y2="0.635" width="0.2032" layer="21"/>
<wire x1="-1.27" y1="-0.635" x2="-0.635" y2="-1.27" width="0.2032" layer="21"/>
<wire x1="0.635" y1="-1.27" x2="-0.635" y2="-1.27" width="0.2032" layer="21"/>
<wire x1="17.145" y1="1.27" x2="18.415" y2="1.27" width="0.2032" layer="21"/>
<wire x1="18.415" y1="1.27" x2="19.05" y2="0.635" width="0.2032" layer="21"/>
<wire x1="19.05" y1="0.635" x2="19.05" y2="-0.635" width="0.2032" layer="21"/>
<wire x1="19.05" y1="-0.635" x2="18.415" y2="-1.27" width="0.2032" layer="21"/>
<wire x1="17.145" y1="1.27" x2="16.51" y2="0.635" width="0.2032" layer="21"/>
<wire x1="16.51" y1="-0.635" x2="17.145" y2="-1.27" width="0.2032" layer="21"/>
<wire x1="18.415" y1="-1.27" x2="17.145" y2="-1.27" width="0.2032" layer="21"/>
<pad name="1" x="0" y="0" drill="1.016" diameter="1.8796" shape="square" rot="R90"/>
<pad name="2" x="2.54" y="0" drill="1.016" diameter="1.8796" rot="R90"/>
<pad name="3" x="5.08" y="0" drill="1.016" diameter="1.8796" rot="R90"/>
<pad name="4" x="7.62" y="0" drill="1.016" diameter="1.8796" rot="R90"/>
<pad name="5" x="10.16" y="0" drill="1.016" diameter="1.8796" rot="R90"/>
<pad name="6" x="12.7" y="0" drill="1.016" diameter="1.8796" rot="R90"/>
<pad name="7" x="15.24" y="0" drill="1.016" diameter="1.8796" rot="R90"/>
<pad name="8" x="17.78" y="0" drill="1.016" diameter="1.8796" rot="R90"/>
<text x="-1.3462" y="1.8288" size="1.27" layer="25" ratio="10">&gt;NAME</text>
<text x="-1.27" y="-3.175" size="1.27" layer="27">&gt;VALUE</text>
<rectangle x1="14.986" y1="-0.254" x2="15.494" y2="0.254" layer="51"/>
<rectangle x1="12.446" y1="-0.254" x2="12.954" y2="0.254" layer="51"/>
<rectangle x1="9.906" y1="-0.254" x2="10.414" y2="0.254" layer="51"/>
<rectangle x1="7.366" y1="-0.254" x2="7.874" y2="0.254" layer="51"/>
<rectangle x1="4.826" y1="-0.254" x2="5.334" y2="0.254" layer="51"/>
<rectangle x1="2.286" y1="-0.254" x2="2.794" y2="0.254" layer="51"/>
<rectangle x1="-0.254" y1="-0.254" x2="0.254" y2="0.254" layer="51"/>
<rectangle x1="17.526" y1="-0.254" x2="18.034" y2="0.254" layer="51"/>
</package>
<package name="1X08_LOCK">
<wire x1="14.605" y1="1.27" x2="15.875" y2="1.27" width="0.2032" layer="21"/>
<wire x1="15.875" y1="1.27" x2="16.51" y2="0.635" width="0.2032" layer="21"/>
<wire x1="16.51" y1="-0.635" x2="15.875" y2="-1.27" width="0.2032" layer="21"/>
<wire x1="11.43" y1="0.635" x2="12.065" y2="1.27" width="0.2032" layer="21"/>
<wire x1="12.065" y1="1.27" x2="13.335" y2="1.27" width="0.2032" layer="21"/>
<wire x1="13.335" y1="1.27" x2="13.97" y2="0.635" width="0.2032" layer="21"/>
<wire x1="13.97" y1="-0.635" x2="13.335" y2="-1.27" width="0.2032" layer="21"/>
<wire x1="13.335" y1="-1.27" x2="12.065" y2="-1.27" width="0.2032" layer="21"/>
<wire x1="12.065" y1="-1.27" x2="11.43" y2="-0.635" width="0.2032" layer="21"/>
<wire x1="14.605" y1="1.27" x2="13.97" y2="0.635" width="0.2032" layer="21"/>
<wire x1="13.97" y1="-0.635" x2="14.605" y2="-1.27" width="0.2032" layer="21"/>
<wire x1="15.875" y1="-1.27" x2="14.605" y2="-1.27" width="0.2032" layer="21"/>
<wire x1="6.985" y1="1.27" x2="8.255" y2="1.27" width="0.2032" layer="21"/>
<wire x1="8.255" y1="1.27" x2="8.89" y2="0.635" width="0.2032" layer="21"/>
<wire x1="8.89" y1="-0.635" x2="8.255" y2="-1.27" width="0.2032" layer="21"/>
<wire x1="8.89" y1="0.635" x2="9.525" y2="1.27" width="0.2032" layer="21"/>
<wire x1="9.525" y1="1.27" x2="10.795" y2="1.27" width="0.2032" layer="21"/>
<wire x1="10.795" y1="1.27" x2="11.43" y2="0.635" width="0.2032" layer="21"/>
<wire x1="11.43" y1="-0.635" x2="10.795" y2="-1.27" width="0.2032" layer="21"/>
<wire x1="10.795" y1="-1.27" x2="9.525" y2="-1.27" width="0.2032" layer="21"/>
<wire x1="9.525" y1="-1.27" x2="8.89" y2="-0.635" width="0.2032" layer="21"/>
<wire x1="3.81" y1="0.635" x2="4.445" y2="1.27" width="0.2032" layer="21"/>
<wire x1="4.445" y1="1.27" x2="5.715" y2="1.27" width="0.2032" layer="21"/>
<wire x1="5.715" y1="1.27" x2="6.35" y2="0.635" width="0.2032" layer="21"/>
<wire x1="6.35" y1="-0.635" x2="5.715" y2="-1.27" width="0.2032" layer="21"/>
<wire x1="5.715" y1="-1.27" x2="4.445" y2="-1.27" width="0.2032" layer="21"/>
<wire x1="4.445" y1="-1.27" x2="3.81" y2="-0.635" width="0.2032" layer="21"/>
<wire x1="6.985" y1="1.27" x2="6.35" y2="0.635" width="0.2032" layer="21"/>
<wire x1="6.35" y1="-0.635" x2="6.985" y2="-1.27" width="0.2032" layer="21"/>
<wire x1="8.255" y1="-1.27" x2="6.985" y2="-1.27" width="0.2032" layer="21"/>
<wire x1="-0.635" y1="1.27" x2="0.635" y2="1.27" width="0.2032" layer="21"/>
<wire x1="0.635" y1="1.27" x2="1.27" y2="0.635" width="0.2032" layer="21"/>
<wire x1="1.27" y1="-0.635" x2="0.635" y2="-1.27" width="0.2032" layer="21"/>
<wire x1="1.27" y1="0.635" x2="1.905" y2="1.27" width="0.2032" layer="21"/>
<wire x1="1.905" y1="1.27" x2="3.175" y2="1.27" width="0.2032" layer="21"/>
<wire x1="3.175" y1="1.27" x2="3.81" y2="0.635" width="0.2032" layer="21"/>
<wire x1="3.81" y1="-0.635" x2="3.175" y2="-1.27" width="0.2032" layer="21"/>
<wire x1="3.175" y1="-1.27" x2="1.905" y2="-1.27" width="0.2032" layer="21"/>
<wire x1="1.905" y1="-1.27" x2="1.27" y2="-0.635" width="0.2032" layer="21"/>
<wire x1="-1.27" y1="0.635" x2="-1.27" y2="-0.635" width="0.2032" layer="21"/>
<wire x1="-0.635" y1="1.27" x2="-1.27" y2="0.635" width="0.2032" layer="21"/>
<wire x1="-1.27" y1="-0.635" x2="-0.635" y2="-1.27" width="0.2032" layer="21"/>
<wire x1="0.635" y1="-1.27" x2="-0.635" y2="-1.27" width="0.2032" layer="21"/>
<wire x1="17.145" y1="1.27" x2="18.415" y2="1.27" width="0.2032" layer="21"/>
<wire x1="18.415" y1="1.27" x2="19.05" y2="0.635" width="0.2032" layer="21"/>
<wire x1="19.05" y1="0.635" x2="19.05" y2="-0.635" width="0.2032" layer="21"/>
<wire x1="19.05" y1="-0.635" x2="18.415" y2="-1.27" width="0.2032" layer="21"/>
<wire x1="17.145" y1="1.27" x2="16.51" y2="0.635" width="0.2032" layer="21"/>
<wire x1="16.51" y1="-0.635" x2="17.145" y2="-1.27" width="0.2032" layer="21"/>
<wire x1="18.415" y1="-1.27" x2="17.145" y2="-1.27" width="0.2032" layer="21"/>
<pad name="1" x="0" y="0.127" drill="1.016" diameter="1.8796" shape="square" rot="R90"/>
<pad name="2" x="2.54" y="-0.127" drill="1.016" diameter="1.8796" rot="R90"/>
<pad name="3" x="5.08" y="0.127" drill="1.016" diameter="1.8796" rot="R90"/>
<pad name="4" x="7.62" y="-0.127" drill="1.016" diameter="1.8796" rot="R90"/>
<pad name="5" x="10.16" y="0.127" drill="1.016" diameter="1.8796" rot="R90"/>
<pad name="6" x="12.7" y="-0.127" drill="1.016" diameter="1.8796" rot="R90"/>
<pad name="7" x="15.24" y="0.127" drill="1.016" diameter="1.8796" rot="R90"/>
<pad name="8" x="17.78" y="-0.127" drill="1.016" diameter="1.8796" rot="R90"/>
<text x="-1.3462" y="1.8288" size="1.27" layer="25" ratio="10">&gt;NAME</text>
<text x="-1.27" y="-3.175" size="1.27" layer="27">&gt;VALUE</text>
<rectangle x1="14.986" y1="-0.254" x2="15.494" y2="0.254" layer="51"/>
<rectangle x1="12.446" y1="-0.254" x2="12.954" y2="0.254" layer="51"/>
<rectangle x1="9.906" y1="-0.254" x2="10.414" y2="0.254" layer="51"/>
<rectangle x1="7.366" y1="-0.254" x2="7.874" y2="0.254" layer="51"/>
<rectangle x1="4.826" y1="-0.254" x2="5.334" y2="0.254" layer="51"/>
<rectangle x1="2.286" y1="-0.254" x2="2.794" y2="0.254" layer="51"/>
<rectangle x1="-0.254" y1="-0.254" x2="0.254" y2="0.254" layer="51"/>
<rectangle x1="17.526" y1="-0.254" x2="18.034" y2="0.254" layer="51"/>
</package>
<package name="1X08_LOCK_LONGPADS">
<wire x1="1.524" y1="0" x2="1.016" y2="0" width="0.2032" layer="21"/>
<wire x1="4.064" y1="0" x2="3.556" y2="0" width="0.2032" layer="21"/>
<wire x1="6.604" y1="0" x2="6.096" y2="0" width="0.2032" layer="21"/>
<wire x1="9.144" y1="0" x2="8.636" y2="0" width="0.2032" layer="21"/>
<wire x1="11.684" y1="0" x2="11.176" y2="0" width="0.2032" layer="21"/>
<wire x1="-1.27" y1="0" x2="-1.016" y2="0" width="0.2032" layer="21"/>
<wire x1="-1.27" y1="0" x2="-1.27" y2="0.9906" width="0.2032" layer="21"/>
<wire x1="-1.27" y1="0.9906" x2="-0.9906" y2="1.27" width="0.2032" layer="21"/>
<wire x1="-1.27" y1="0" x2="-1.27" y2="-0.9906" width="0.2032" layer="21"/>
<wire x1="-1.27" y1="-0.9906" x2="-0.9906" y2="-1.27" width="0.2032" layer="21"/>
<wire x1="14.224" y1="0" x2="13.716" y2="0" width="0.2032" layer="21"/>
<wire x1="16.764" y1="0" x2="16.256" y2="0" width="0.2032" layer="21"/>
<wire x1="19.05" y1="0" x2="19.05" y2="-0.9906" width="0.2032" layer="21"/>
<wire x1="19.05" y1="-0.9906" x2="18.7706" y2="-1.27" width="0.2032" layer="21"/>
<wire x1="19.05" y1="0" x2="19.05" y2="0.9906" width="0.2032" layer="21"/>
<wire x1="19.05" y1="0.9906" x2="18.7706" y2="1.27" width="0.2032" layer="21"/>
<wire x1="19.05" y1="0" x2="18.796" y2="0" width="0.2032" layer="21"/>
<pad name="1" x="0" y="0.127" drill="1.016" shape="long" rot="R90"/>
<pad name="2" x="2.54" y="-0.127" drill="1.016" shape="long" rot="R90"/>
<pad name="3" x="5.08" y="0.127" drill="1.016" shape="long" rot="R90"/>
<pad name="4" x="7.62" y="-0.127" drill="1.016" shape="long" rot="R90"/>
<pad name="5" x="10.16" y="0.127" drill="1.016" shape="long" rot="R90"/>
<pad name="6" x="12.7" y="-0.127" drill="1.016" shape="long" rot="R90"/>
<pad name="7" x="15.24" y="0.127" drill="1.016" shape="long" rot="R90"/>
<pad name="8" x="17.78" y="-0.127" drill="1.016" shape="long" rot="R90"/>
<text x="-1.27" y="1.905" size="1.27" layer="25" font="vector">&gt;NAME</text>
<text x="-1.27" y="-3.175" size="1.27" layer="27" font="vector">&gt;VALUE</text>
<rectangle x1="-0.2921" y1="-0.2921" x2="0.2921" y2="0.2921" layer="51"/>
<rectangle x1="2.2479" y1="-0.2921" x2="2.8321" y2="0.2921" layer="51"/>
<rectangle x1="4.7879" y1="-0.2921" x2="5.3721" y2="0.2921" layer="51"/>
<rectangle x1="7.3279" y1="-0.2921" x2="7.9121" y2="0.2921" layer="51" rot="R90"/>
<rectangle x1="9.8679" y1="-0.2921" x2="10.4521" y2="0.2921" layer="51"/>
<rectangle x1="12.4079" y1="-0.2921" x2="12.9921" y2="0.2921" layer="51"/>
<rectangle x1="14.9479" y1="-0.2921" x2="15.5321" y2="0.2921" layer="51"/>
<rectangle x1="17.4879" y1="-0.2921" x2="18.0721" y2="0.2921" layer="51"/>
</package>
<package name="1X08_LONGPADS">
<wire x1="-1.27" y1="0.635" x2="-1.27" y2="-0.635" width="0.2032" layer="21"/>
<wire x1="19.05" y1="0.635" x2="19.05" y2="-0.635" width="0.2032" layer="21"/>
<pad name="1" x="0" y="0" drill="1.1176" diameter="1.8796" shape="long" rot="R90"/>
<pad name="2" x="2.54" y="0" drill="1.1176" diameter="1.8796" shape="long" rot="R90"/>
<pad name="3" x="5.08" y="0" drill="1.1176" diameter="1.8796" shape="long" rot="R90"/>
<pad name="4" x="7.62" y="0" drill="1.1176" diameter="1.8796" shape="long" rot="R90"/>
<pad name="5" x="10.16" y="0" drill="1.1176" diameter="1.8796" shape="long" rot="R90"/>
<pad name="6" x="12.7" y="0" drill="1.1176" diameter="1.8796" shape="long" rot="R90"/>
<pad name="7" x="15.24" y="0" drill="1.1176" diameter="1.8796" shape="long" rot="R90"/>
<pad name="8" x="17.78" y="0" drill="1.1176" diameter="1.8796" shape="long" rot="R90"/>
<text x="-1.3462" y="2.4638" size="1.27" layer="25" ratio="10">&gt;NAME</text>
<text x="-1.27" y="-3.81" size="1.27" layer="27">&gt;VALUE</text>
<rectangle x1="14.986" y1="-0.254" x2="15.494" y2="0.254" layer="51"/>
<rectangle x1="12.446" y1="-0.254" x2="12.954" y2="0.254" layer="51"/>
<rectangle x1="9.906" y1="-0.254" x2="10.414" y2="0.254" layer="51"/>
<rectangle x1="7.366" y1="-0.254" x2="7.874" y2="0.254" layer="51"/>
<rectangle x1="4.826" y1="-0.254" x2="5.334" y2="0.254" layer="51"/>
<rectangle x1="2.286" y1="-0.254" x2="2.794" y2="0.254" layer="51"/>
<rectangle x1="-0.254" y1="-0.254" x2="0.254" y2="0.254" layer="51"/>
<rectangle x1="17.526" y1="-0.254" x2="18.034" y2="0.254" layer="51"/>
</package>
<package name="SCREWTERMINAL-3.5MM-8">
<wire x1="-2.3" y1="3.4" x2="26.76" y2="3.4" width="0.2032" layer="21"/>
<wire x1="26.76" y1="3.4" x2="26.76" y2="-2.8" width="0.2032" layer="21"/>
<wire x1="26.76" y1="-2.8" x2="26.76" y2="-3.6" width="0.2032" layer="21"/>
<wire x1="26.76" y1="-3.6" x2="-2.3" y2="-3.6" width="0.2032" layer="21"/>
<wire x1="-2.3" y1="-3.6" x2="-2.3" y2="-2.8" width="0.2032" layer="21"/>
<wire x1="-2.3" y1="-2.8" x2="-2.3" y2="3.4" width="0.2032" layer="21"/>
<wire x1="26.76" y1="-2.8" x2="-2.3" y2="-2.8" width="0.2032" layer="21"/>
<wire x1="-2.3" y1="-1.35" x2="-2.7" y2="-1.35" width="0.2032" layer="51"/>
<wire x1="-2.7" y1="-1.35" x2="-2.7" y2="-2.35" width="0.2032" layer="51"/>
<wire x1="-2.7" y1="-2.35" x2="-2.3" y2="-2.35" width="0.2032" layer="51"/>
<wire x1="26.76" y1="3.15" x2="27.16" y2="3.15" width="0.2032" layer="51"/>
<wire x1="27.16" y1="3.15" x2="27.16" y2="2.15" width="0.2032" layer="51"/>
<wire x1="27.16" y1="2.15" x2="26.76" y2="2.15" width="0.2032" layer="51"/>
<pad name="1" x="0" y="0" drill="1.2" diameter="2.032" shape="square"/>
<pad name="2" x="3.5" y="0" drill="1.2" diameter="2.032"/>
<pad name="3" x="7" y="0" drill="1.2" diameter="2.032"/>
<pad name="4" x="10.5" y="0" drill="1.2" diameter="2.032"/>
<pad name="5" x="14" y="0" drill="1.2" diameter="2.032"/>
<pad name="6" x="17.5" y="0" drill="1.2" diameter="2.032"/>
<pad name="7" x="21" y="0" drill="1.2" diameter="2.032"/>
<pad name="8" x="24.5" y="0" drill="1.2" diameter="2.032"/>
<text x="-1.27" y="2.54" size="0.4064" layer="25">&gt;NAME</text>
<text x="-1.27" y="1.27" size="0.4064" layer="27">&gt;VALUE</text>
</package>
<package name="1X08_SMD">
<wire x1="1.37" y1="1.25" x2="-19.15" y2="1.25" width="0.127" layer="51"/>
<wire x1="-19.15" y1="1.25" x2="-19.15" y2="-1.25" width="0.127" layer="51"/>
<wire x1="-19.15" y1="-1.25" x2="1.37" y2="-1.25" width="0.127" layer="51"/>
<wire x1="1.37" y1="-1.25" x2="1.37" y2="1.25" width="0.127" layer="51"/>
<wire x1="1.37" y1="1.25" x2="1.37" y2="-1.25" width="0.127" layer="21"/>
<wire x1="-19.15" y1="-1.25" x2="-19.15" y2="1.25" width="0.127" layer="21"/>
<wire x1="0.85" y1="1.25" x2="1.37" y2="1.25" width="0.127" layer="21"/>
<wire x1="-19.15" y1="1.25" x2="-15.963" y2="1.25" width="0.127" layer="21"/>
<wire x1="-18.63" y1="-1.25" x2="-19.15" y2="-1.25" width="0.127" layer="21"/>
<wire x1="1.37" y1="-1.25" x2="-1.817" y2="-1.25" width="0.127" layer="21"/>
<wire x1="-4.377" y1="1.25" x2="-0.703" y2="1.25" width="0.127" layer="21"/>
<wire x1="-9.457" y1="1.25" x2="-5.783" y2="1.25" width="0.127" layer="21"/>
<wire x1="-14.537" y1="1.25" x2="-10.863" y2="1.25" width="0.127" layer="21"/>
<wire x1="-3.329" y1="-1.25" x2="-6.831" y2="-1.25" width="0.127" layer="21"/>
<wire x1="-8.409" y1="-1.25" x2="-11.911" y2="-1.25" width="0.127" layer="21"/>
<wire x1="-13.489" y1="-1.25" x2="-16.991" y2="-1.25" width="0.127" layer="21"/>
<smd name="7" x="-15.24" y="1.65" dx="2" dy="1" layer="1" rot="R90"/>
<smd name="5" x="-10.16" y="1.65" dx="2" dy="1" layer="1" rot="R90"/>
<smd name="3" x="-5.08" y="1.65" dx="2" dy="1" layer="1" rot="R90"/>
<smd name="1" x="0" y="1.65" dx="2" dy="1" layer="1" rot="R90"/>
<smd name="8" x="-17.78" y="-1.65" dx="2" dy="1" layer="1" rot="R90"/>
<smd name="6" x="-12.7" y="-1.65" dx="2" dy="1" layer="1" rot="R90"/>
<smd name="4" x="-7.62" y="-1.65" dx="2" dy="1" layer="1" rot="R90"/>
<smd name="2" x="-2.54" y="-1.65" dx="2" dy="1" layer="1" rot="R90"/>
<text x="-19.05" y="2.921" size="1.27" layer="25" ratio="10">&gt;NAME</text>
<text x="-19.05" y="-4.191" size="1.27" layer="27">&gt;VALUE</text>
</package>
<package name="1X08_SMD_ALT">
<wire x1="1.37" y1="1.25" x2="-19.15" y2="1.25" width="0.127" layer="51"/>
<wire x1="-19.15" y1="1.25" x2="-19.15" y2="-1.25" width="0.127" layer="51"/>
<wire x1="-19.15" y1="-1.25" x2="1.37" y2="-1.25" width="0.127" layer="51"/>
<wire x1="1.37" y1="-1.25" x2="1.37" y2="1.25" width="0.127" layer="51"/>
<wire x1="-19.15" y1="1.25" x2="-19.15" y2="-1.25" width="0.127" layer="21"/>
<wire x1="1.37" y1="-1.25" x2="1.37" y2="1.25" width="0.127" layer="21"/>
<wire x1="-18.63" y1="1.25" x2="-19.15" y2="1.25" width="0.127" layer="21"/>
<wire x1="1.37" y1="1.25" x2="-1.817" y2="1.25" width="0.127" layer="21"/>
<wire x1="0.85" y1="-1.25" x2="1.37" y2="-1.25" width="0.127" layer="21"/>
<wire x1="-19.15" y1="-1.25" x2="-15.963" y2="-1.25" width="0.127" layer="21"/>
<wire x1="-13.403" y1="1.25" x2="-17.077" y2="1.25" width="0.127" layer="21"/>
<wire x1="-8.323" y1="1.25" x2="-11.997" y2="1.25" width="0.127" layer="21"/>
<wire x1="-3.243" y1="1.25" x2="-6.917" y2="1.25" width="0.127" layer="21"/>
<wire x1="-14.451" y1="-1.25" x2="-10.949" y2="-1.25" width="0.127" layer="21"/>
<wire x1="-9.371" y1="-1.25" x2="-5.869" y2="-1.25" width="0.127" layer="21"/>
<wire x1="-4.291" y1="-1.25" x2="-0.789" y2="-1.25" width="0.127" layer="21"/>
<smd name="7" x="-15.24" y="-1.65" dx="2" dy="1" layer="1" rot="R270"/>
<smd name="5" x="-10.16" y="-1.65" dx="2" dy="1" layer="1" rot="R270"/>
<smd name="3" x="-5.08" y="-1.65" dx="2" dy="1" layer="1" rot="R270"/>
<smd name="1" x="0" y="-1.65" dx="2" dy="1" layer="1" rot="R270"/>
<smd name="8" x="-17.78" y="1.65" dx="2" dy="1" layer="1" rot="R270"/>
<smd name="6" x="-12.7" y="1.65" dx="2" dy="1" layer="1" rot="R270"/>
<smd name="4" x="-7.62" y="1.65" dx="2" dy="1" layer="1" rot="R270"/>
<smd name="2" x="-2.54" y="1.65" dx="2" dy="1" layer="1" rot="R270"/>
<text x="-19.05" y="2.921" size="1.27" layer="25" ratio="10">&gt;NAME</text>
<text x="-19.05" y="-4.191" size="1.27" layer="27">&gt;VALUE</text>
</package>
<package name="1X08_SMD_COMBINED">
<wire x1="-1.37" y1="-1.25" x2="-1.37" y2="1.25" width="0.127" layer="21"/>
<wire x1="19.15" y1="1.25" x2="19.15" y2="-1.25" width="0.127" layer="21"/>
<wire x1="-0.85" y1="-1.25" x2="-1.37" y2="-1.25" width="0.127" layer="21"/>
<wire x1="19.15" y1="-1.25" x2="18.503" y2="-1.25" width="0.127" layer="21"/>
<wire x1="18.63" y1="1.25" x2="19.15" y2="1.25" width="0.127" layer="21"/>
<wire x1="-1.37" y1="1.25" x2="-0.723" y2="1.25" width="0.127" layer="21"/>
<wire x1="14.537" y1="-1.25" x2="13.403" y2="-1.25" width="0.127" layer="21"/>
<wire x1="0.789" y1="1.25" x2="1.751" y2="1.25" width="0.127" layer="21"/>
<wire x1="3.329" y1="1.25" x2="4.291" y2="1.25" width="0.127" layer="21"/>
<wire x1="5.869" y1="1.25" x2="6.831" y2="1.25" width="0.127" layer="21"/>
<wire x1="8.409" y1="1.25" x2="9.371" y2="1.25" width="0.127" layer="21"/>
<wire x1="10.949" y1="1.25" x2="11.911" y2="1.25" width="0.127" layer="21"/>
<wire x1="13.489" y1="1.25" x2="14.451" y2="1.25" width="0.127" layer="21"/>
<wire x1="16.029" y1="1.25" x2="16.991" y2="1.25" width="0.127" layer="21"/>
<wire x1="17.077" y1="-1.25" x2="15.943" y2="-1.25" width="0.127" layer="21"/>
<wire x1="11.997" y1="-1.25" x2="10.863" y2="-1.25" width="0.127" layer="21"/>
<wire x1="9.457" y1="-1.25" x2="8.323" y2="-1.25" width="0.127" layer="21"/>
<wire x1="6.917" y1="-1.25" x2="5.783" y2="-1.25" width="0.127" layer="21"/>
<wire x1="4.377" y1="-1.25" x2="3.243" y2="-1.25" width="0.127" layer="21"/>
<wire x1="1.837" y1="-1.25" x2="0.703" y2="-1.25" width="0.127" layer="21"/>
<wire x1="17.78" y1="1.27" x2="17.78" y2="-1.27" width="0.4064" layer="1"/>
<wire x1="15.24" y1="1.27" x2="15.24" y2="-1.27" width="0.4064" layer="1"/>
<wire x1="12.7" y1="1.27" x2="12.7" y2="-1.27" width="0.4064" layer="1"/>
<wire x1="10.16" y1="1.27" x2="10.16" y2="-1.27" width="0.4064" layer="1"/>
<wire x1="7.62" y1="1.27" x2="7.62" y2="-1.27" width="0.4064" layer="1"/>
<wire x1="5.08" y1="1.27" x2="5.08" y2="-1.27" width="0.4064" layer="1"/>
<wire x1="2.54" y1="1.27" x2="2.54" y2="-1.27" width="0.4064" layer="1"/>
<wire x1="0" y1="1.27" x2="0" y2="-1.27" width="0.4064" layer="1"/>
<smd name="7@2" x="15.24" y="-1.65" dx="2" dy="1" layer="1" rot="R270"/>
<smd name="5@2" x="10.16" y="-1.65" dx="2" dy="1" layer="1" rot="R270"/>
<smd name="3@2" x="5.08" y="-1.65" dx="2" dy="1" layer="1" rot="R270"/>
<smd name="8@2" x="17.78" y="1.65" dx="2" dy="1" layer="1" rot="R270"/>
<smd name="6@2" x="12.7" y="1.65" dx="2" dy="1" layer="1" rot="R270"/>
<smd name="4@2" x="7.62" y="1.65" dx="2" dy="1" layer="1" rot="R270"/>
<smd name="2@2" x="2.54" y="1.65" dx="2" dy="1" layer="1" rot="R270"/>
<smd name="1" x="0" y="1.65" dx="2" dy="1" layer="1" rot="R90"/>
<smd name="2" x="2.54" y="-1.65" dx="2" dy="1" layer="1" rot="R90"/>
<smd name="3" x="5.08" y="1.65" dx="2" dy="1" layer="1" rot="R90"/>
<smd name="4" x="7.62" y="-1.65" dx="2" dy="1" layer="1" rot="R90"/>
<smd name="5" x="10.16" y="1.65" dx="2" dy="1" layer="1" rot="R90"/>
<smd name="6" x="12.7" y="-1.65" dx="2" dy="1" layer="1" rot="R90"/>
<smd name="7" x="15.24" y="1.65" dx="2" dy="1" layer="1" rot="R90"/>
<smd name="8" x="17.78" y="-1.65" dx="2" dy="1" layer="1" rot="R270"/>
<smd name="1@2" x="0" y="-1.65" dx="2" dy="1" layer="1" rot="R270"/>
<text x="0" y="2.921" size="1.27" layer="25" ratio="10">&gt;NAME</text>
<text x="0" y="-4.191" size="1.27" layer="27">&gt;VALUE</text>
</package>
<package name="BM08B-SRSS-TB">
<description>JST crimp connector: 1mm pitch, top entry</description>
<wire x1="-5" y1="3.3" x2="5" y2="3.3" width="0.127" layer="51"/>
<wire x1="-5" y1="0.4" x2="-5" y2="3.3" width="0.127" layer="51"/>
<wire x1="5" y1="0.4" x2="5" y2="3.3" width="0.127" layer="51"/>
<wire x1="-5" y1="0.4" x2="5" y2="0.4" width="0.127" layer="51"/>
<wire x1="-4.1" y1="0.35" x2="-5.05" y2="0.35" width="0.2032" layer="21"/>
<wire x1="-5.05" y1="0.35" x2="-5.05" y2="1.35" width="0.2032" layer="21"/>
<wire x1="5.05" y1="0.35" x2="4.15" y2="0.35" width="0.2032" layer="21"/>
<wire x1="5.05" y1="0.35" x2="5.05" y2="1.35" width="0.2032" layer="21"/>
<wire x1="-3.9" y1="3.4" x2="3.9" y2="3.4" width="0.2032" layer="21"/>
<circle x="-4.4" y="-0.35" radius="0.1118" width="0.4064" layer="21"/>
<smd name="1" x="-3.5" y="0" dx="0.6" dy="1.55" layer="1" rot="R180"/>
<smd name="2" x="-2.5" y="0" dx="0.6" dy="1.55" layer="1" rot="R180"/>
<smd name="3" x="-1.5" y="0" dx="0.6" dy="1.55" layer="1" rot="R180"/>
<smd name="4" x="-0.5" y="0" dx="0.6" dy="1.55" layer="1" rot="R180"/>
<smd name="5" x="0.5" y="0" dx="0.6" dy="1.55" layer="1" rot="R180"/>
<smd name="6" x="1.5" y="0" dx="0.6" dy="1.55" layer="1" rot="R180"/>
<smd name="7" x="2.5" y="0" dx="0.6" dy="1.55" layer="1" rot="R180"/>
<smd name="8" x="3.5" y="0" dx="0.6" dy="1.55" layer="1" rot="R180"/>
<smd name="P$9" x="4.8" y="2.525" dx="1.8" dy="1.2" layer="1" rot="R90"/>
<smd name="P$10" x="-4.8" y="2.525" dx="1.8" dy="1.2" layer="1" rot="R90"/>
<text x="-3.8" y="2.5" size="0.4064" layer="25">&gt;NAME</text>
<text x="-3.8" y="1.3" size="0.4064" layer="27">&gt;VALUE</text>
</package>
<package name="1X08_SMD_MALE">
<text x="-1" y="3.321" size="1.27" layer="25" ratio="10">&gt;NAME</text>
<text x="-1" y="-4.591" size="1.27" layer="27">&gt;VALUE</text>
<wire x1="-1.27" y1="1.25" x2="-1.27" y2="-1.25" width="0.127" layer="51"/>
<wire x1="-1.27" y1="-1.25" x2="19.05" y2="-1.25" width="0.127" layer="51"/>
<wire x1="19.05" y1="-1.25" x2="19.05" y2="1.25" width="0.127" layer="51"/>
<wire x1="19.05" y1="1.25" x2="-1.27" y2="1.25" width="0.127" layer="51"/>
<circle x="0" y="0" radius="0.64" width="0.127" layer="51"/>
<circle x="2.54" y="0" radius="0.64" width="0.127" layer="51"/>
<circle x="5.08" y="0" radius="0.64" width="0.127" layer="51"/>
<circle x="7.62" y="0" radius="0.64" width="0.127" layer="51"/>
<circle x="10.16" y="0" radius="0.64" width="0.127" layer="51"/>
<circle x="12.7" y="0" radius="0.64" width="0.127" layer="51"/>
<rectangle x1="-0.32" y1="0" x2="0.32" y2="2.75" layer="51"/>
<rectangle x1="4.76" y1="0" x2="5.4" y2="2.75" layer="51"/>
<rectangle x1="9.84" y1="0" x2="10.48" y2="2.75" layer="51"/>
<rectangle x1="2.22" y1="-2.75" x2="2.86" y2="0" layer="51" rot="R180"/>
<rectangle x1="7.3" y1="-2.75" x2="7.94" y2="0" layer="51" rot="R180"/>
<rectangle x1="12.38" y1="-2.75" x2="13.02" y2="0" layer="51" rot="R180"/>
<smd name="1" x="0" y="0" dx="1.02" dy="6" layer="1"/>
<smd name="2" x="2.54" y="0" dx="1.02" dy="6" layer="1"/>
<smd name="3" x="5.08" y="0" dx="1.02" dy="6" layer="1"/>
<smd name="4" x="7.62" y="0" dx="1.02" dy="6" layer="1"/>
<smd name="5" x="10.16" y="0" dx="1.02" dy="6" layer="1"/>
<smd name="6" x="12.7" y="0" dx="1.02" dy="6" layer="1"/>
<wire x1="-1.27" y1="1.25" x2="-1.27" y2="-1.25" width="0.1778" layer="21"/>
<wire x1="-1.27" y1="-1.25" x2="-0.635" y2="-1.25" width="0.1778" layer="21"/>
<wire x1="-1.27" y1="1.25" x2="-0.635" y2="1.25" width="0.1778" layer="21"/>
<wire x1="0.762" y1="1.25" x2="1.778" y2="1.25" width="0.1778" layer="21"/>
<wire x1="3.302" y1="1.25" x2="4.318" y2="1.25" width="0.1778" layer="21"/>
<wire x1="5.842" y1="1.25" x2="6.858" y2="1.25" width="0.1778" layer="21"/>
<wire x1="8.382" y1="1.25" x2="9.398" y2="1.25" width="0.1778" layer="21"/>
<wire x1="10.922" y1="1.25" x2="11.938" y2="1.25" width="0.1778" layer="21"/>
<wire x1="1.778" y1="-1.25" x2="0.762" y2="-1.25" width="0.1778" layer="21"/>
<wire x1="4.318" y1="-1.25" x2="3.302" y2="-1.25" width="0.1778" layer="21"/>
<wire x1="6.858" y1="-1.25" x2="5.842" y2="-1.25" width="0.1778" layer="21"/>
<wire x1="9.398" y1="-1.25" x2="8.382" y2="-1.25" width="0.1778" layer="21"/>
<wire x1="11.938" y1="-1.25" x2="10.922" y2="-1.25" width="0.1778" layer="21"/>
<wire x1="19.05" y1="-1.25" x2="19.05" y2="1.25" width="0.1778" layer="21"/>
<circle x="15.24" y="0" radius="0.64" width="0.127" layer="51"/>
<circle x="17.78" y="0" radius="0.64" width="0.127" layer="51"/>
<rectangle x1="14.92" y1="0" x2="15.56" y2="2.75" layer="51"/>
<rectangle x1="17.46" y1="-2.75" x2="18.1" y2="0" layer="51" rot="R180"/>
<smd name="7" x="15.24" y="0" dx="1.02" dy="6" layer="1"/>
<smd name="8" x="17.78" y="0" dx="1.02" dy="6" layer="1"/>
<wire x1="16.002" y1="1.25" x2="17.018" y2="1.25" width="0.1778" layer="21"/>
<wire x1="17.018" y1="-1.25" x2="16.002" y2="-1.25" width="0.1778" layer="21"/>
<wire x1="19.05" y1="-1.25" x2="18.415" y2="-1.25" width="0.1778" layer="21"/>
<wire x1="19.05" y1="1.25" x2="18.415" y2="1.25" width="0.1778" layer="21"/>
<wire x1="13.462" y1="1.25" x2="14.478" y2="1.25" width="0.1778" layer="21"/>
<wire x1="14.478" y1="-1.25" x2="13.462" y2="-1.25" width="0.1778" layer="21"/>
</package>
</packages>
<symbols>
<symbol name="M08">
<wire x1="1.27" y1="-10.16" x2="-5.08" y2="-10.16" width="0.4064" layer="94"/>
<wire x1="-1.27" y1="-2.54" x2="0" y2="-2.54" width="0.6096" layer="94"/>
<wire x1="-1.27" y1="-5.08" x2="0" y2="-5.08" width="0.6096" layer="94"/>
<wire x1="-1.27" y1="-7.62" x2="0" y2="-7.62" width="0.6096" layer="94"/>
<wire x1="-5.08" y1="12.7" x2="-5.08" y2="-10.16" width="0.4064" layer="94"/>
<wire x1="1.27" y1="-10.16" x2="1.27" y2="12.7" width="0.4064" layer="94"/>
<wire x1="-5.08" y1="12.7" x2="1.27" y2="12.7" width="0.4064" layer="94"/>
<wire x1="-1.27" y1="2.54" x2="0" y2="2.54" width="0.6096" layer="94"/>
<wire x1="-1.27" y1="0" x2="0" y2="0" width="0.6096" layer="94"/>
<wire x1="-1.27" y1="5.08" x2="0" y2="5.08" width="0.6096" layer="94"/>
<wire x1="-1.27" y1="7.62" x2="0" y2="7.62" width="0.6096" layer="94"/>
<wire x1="-1.27" y1="10.16" x2="0" y2="10.16" width="0.6096" layer="94"/>
<text x="-5.08" y="-12.7" size="1.778" layer="96">&gt;VALUE</text>
<text x="-5.08" y="13.462" size="1.778" layer="95">&gt;NAME</text>
<pin name="1" x="5.08" y="-7.62" visible="pad" length="middle" direction="pas" swaplevel="1" rot="R180"/>
<pin name="2" x="5.08" y="-5.08" visible="pad" length="middle" direction="pas" swaplevel="1" rot="R180"/>
<pin name="3" x="5.08" y="-2.54" visible="pad" length="middle" direction="pas" swaplevel="1" rot="R180"/>
<pin name="4" x="5.08" y="0" visible="pad" length="middle" direction="pas" swaplevel="1" rot="R180"/>
<pin name="5" x="5.08" y="2.54" visible="pad" length="middle" direction="pas" swaplevel="1" rot="R180"/>
<pin name="6" x="5.08" y="5.08" visible="pad" length="middle" direction="pas" swaplevel="1" rot="R180"/>
<pin name="7" x="5.08" y="7.62" visible="pad" length="middle" direction="pas" swaplevel="1" rot="R180"/>
<pin name="8" x="5.08" y="10.16" visible="pad" length="middle" direction="pas" swaplevel="1" rot="R180"/>
</symbol>
</symbols>
<devicesets>
<deviceset name="M08" prefix="JP" uservalue="yes">
<description>&lt;b&gt;Header 8&lt;/b&gt;
Standard 8-pin 0.1" header. Use with straight break away headers (SKU : PRT-00116), right angle break away headers (PRT-00553), swiss pins (PRT-00743), machine pins (PRT-00117), and female headers (PRT-00115).</description>
<gates>
<gate name="G$1" symbol="M08" x="-2.54" y="0"/>
</gates>
<devices>
<device name="1X08" package="1X08">
<connects>
<connect gate="G$1" pin="1" pad="1"/>
<connect gate="G$1" pin="2" pad="2"/>
<connect gate="G$1" pin="3" pad="3"/>
<connect gate="G$1" pin="4" pad="4"/>
<connect gate="G$1" pin="5" pad="5"/>
<connect gate="G$1" pin="6" pad="6"/>
<connect gate="G$1" pin="7" pad="7"/>
<connect gate="G$1" pin="8" pad="8"/>
</connects>
<technologies>
<technology name=""/>
</technologies>
</device>
<device name="LOCK" package="1X08_LOCK">
<connects>
<connect gate="G$1" pin="1" pad="1"/>
<connect gate="G$1" pin="2" pad="2"/>
<connect gate="G$1" pin="3" pad="3"/>
<connect gate="G$1" pin="4" pad="4"/>
<connect gate="G$1" pin="5" pad="5"/>
<connect gate="G$1" pin="6" pad="6"/>
<connect gate="G$1" pin="7" pad="7"/>
<connect gate="G$1" pin="8" pad="8"/>
</connects>
<technologies>
<technology name=""/>
</technologies>
</device>
<device name="LOCK_LONGPADS" package="1X08_LOCK_LONGPADS">
<connects>
<connect gate="G$1" pin="1" pad="1"/>
<connect gate="G$1" pin="2" pad="2"/>
<connect gate="G$1" pin="3" pad="3"/>
<connect gate="G$1" pin="4" pad="4"/>
<connect gate="G$1" pin="5" pad="5"/>
<connect gate="G$1" pin="6" pad="6"/>
<connect gate="G$1" pin="7" pad="7"/>
<connect gate="G$1" pin="8" pad="8"/>
</connects>
<technologies>
<technology name=""/>
</technologies>
</device>
<device name="LONGPADS" package="1X08_LONGPADS">
<connects>
<connect gate="G$1" pin="1" pad="1"/>
<connect gate="G$1" pin="2" pad="2"/>
<connect gate="G$1" pin="3" pad="3"/>
<connect gate="G$1" pin="4" pad="4"/>
<connect gate="G$1" pin="5" pad="5"/>
<connect gate="G$1" pin="6" pad="6"/>
<connect gate="G$1" pin="7" pad="7"/>
<connect gate="G$1" pin="8" pad="8"/>
</connects>
<technologies>
<technology name=""/>
</technologies>
</device>
<device name="3.5MM-8" package="SCREWTERMINAL-3.5MM-8">
<connects>
<connect gate="G$1" pin="1" pad="1"/>
<connect gate="G$1" pin="2" pad="2"/>
<connect gate="G$1" pin="3" pad="3"/>
<connect gate="G$1" pin="4" pad="4"/>
<connect gate="G$1" pin="5" pad="5"/>
<connect gate="G$1" pin="6" pad="6"/>
<connect gate="G$1" pin="7" pad="7"/>
<connect gate="G$1" pin="8" pad="8"/>
</connects>
<technologies>
<technology name=""/>
</technologies>
</device>
<device name="SMD-STRAIGHT" package="1X08_SMD">
<connects>
<connect gate="G$1" pin="1" pad="1"/>
<connect gate="G$1" pin="2" pad="2"/>
<connect gate="G$1" pin="3" pad="3"/>
<connect gate="G$1" pin="4" pad="4"/>
<connect gate="G$1" pin="5" pad="5"/>
<connect gate="G$1" pin="6" pad="6"/>
<connect gate="G$1" pin="7" pad="7"/>
<connect gate="G$1" pin="8" pad="8"/>
</connects>
<technologies>
<technology name=""/>
</technologies>
</device>
<device name="SMD-STRAIGHT-ALT" package="1X08_SMD_ALT">
<connects>
<connect gate="G$1" pin="1" pad="1"/>
<connect gate="G$1" pin="2" pad="2"/>
<connect gate="G$1" pin="3" pad="3"/>
<connect gate="G$1" pin="4" pad="4"/>
<connect gate="G$1" pin="5" pad="5"/>
<connect gate="G$1" pin="6" pad="6"/>
<connect gate="G$1" pin="7" pad="7"/>
<connect gate="G$1" pin="8" pad="8"/>
</connects>
<technologies>
<technology name=""/>
</technologies>
</device>
<device name="SMD-COMBO" package="1X08_SMD_COMBINED">
<connects>
<connect gate="G$1" pin="1" pad="1"/>
<connect gate="G$1" pin="2" pad="2"/>
<connect gate="G$1" pin="3" pad="3"/>
<connect gate="G$1" pin="4" pad="4"/>
<connect gate="G$1" pin="5" pad="5"/>
<connect gate="G$1" pin="6" pad="6"/>
<connect gate="G$1" pin="7" pad="7"/>
<connect gate="G$1" pin="8" pad="8"/>
</connects>
<technologies>
<technology name=""/>
</technologies>
</device>
<device name="BM08B-SRSS-TB" package="BM08B-SRSS-TB">
<connects>
<connect gate="G$1" pin="1" pad="1"/>
<connect gate="G$1" pin="2" pad="2"/>
<connect gate="G$1" pin="3" pad="3"/>
<connect gate="G$1" pin="4" pad="4"/>
<connect gate="G$1" pin="5" pad="5"/>
<connect gate="G$1" pin="6" pad="6"/>
<connect gate="G$1" pin="7" pad="7"/>
<connect gate="G$1" pin="8" pad="8"/>
</connects>
<technologies>
<technology name=""/>
</technologies>
</device>
<device name="SMD-MALE" package="1X08_SMD_MALE">
<connects>
<connect gate="G$1" pin="1" pad="1"/>
<connect gate="G$1" pin="2" pad="2"/>
<connect gate="G$1" pin="3" pad="3"/>
<connect gate="G$1" pin="4" pad="4"/>
<connect gate="G$1" pin="5" pad="5"/>
<connect gate="G$1" pin="6" pad="6"/>
<connect gate="G$1" pin="7" pad="7"/>
<connect gate="G$1" pin="8" pad="8"/>
</connects>
<technologies>
<technology name="">
<attribute name="PROD_ID" value="CONN-11292"/>
</technology>
</technologies>
</device>
</devices>
</deviceset>
</devicesets>
</library>
</libraries>
<attributes>
</attributes>
<variantdefs>
</variantdefs>
<classes>
<class number="0" name="default" width="0" drill="0">
</class>
</classes>
<parts>
<part name="U1" library="HHJ" deviceset="BQ24450" device=""/>
<part name="JP1" library="SparkFun-Connectors" deviceset="M08" device="1X08"/>
<part name="JP2" library="SparkFun-Connectors" deviceset="M08" device="1X08"/>
</parts>
<sheets>
<sheet>
<plain>
</plain>
<instances>
<instance part="U1" gate="G$1" x="60.96" y="66.04"/>
<instance part="JP1" gate="G$1" x="-2.54" y="81.28"/>
<instance part="JP2" gate="G$1" x="-2.54" y="55.88"/>
</instances>
<busses>
</busses>
<nets>
<net name="ISNS" class="0">
<segment>
<pinref part="JP2" gate="G$1" pin="1"/>
<pinref part="U1" gate="G$1" pin="ISNS"/>
<wire x1="38.1" y1="68.58" x2="27.94" y2="68.58" width="0.1524" layer="91"/>
<wire x1="27.94" y1="68.58" x2="27.94" y2="48.26" width="0.1524" layer="91"/>
<wire x1="27.94" y1="48.26" x2="2.54" y2="48.26" width="0.1524" layer="91"/>
</segment>
</net>
<net name="ISNSM" class="0">
<segment>
<pinref part="JP2" gate="G$1" pin="2"/>
<wire x1="2.54" y1="50.8" x2="25.4" y2="50.8" width="0.1524" layer="91"/>
<wire x1="25.4" y1="50.8" x2="25.4" y2="88.9" width="0.1524" layer="91"/>
<pinref part="U1" gate="G$1" pin="ISNSM"/>
<wire x1="25.4" y1="88.9" x2="55.88" y2="88.9" width="0.1524" layer="91"/>
<wire x1="55.88" y1="88.9" x2="55.88" y2="86.36" width="0.1524" layer="91"/>
</segment>
</net>
<net name="ISNSP" class="0">
<segment>
<pinref part="JP2" gate="G$1" pin="3"/>
<pinref part="U1" gate="G$1" pin="ISNSP"/>
<wire x1="53.34" y1="86.36" x2="53.34" y2="91.44" width="0.1524" layer="91"/>
<wire x1="53.34" y1="91.44" x2="22.86" y2="91.44" width="0.1524" layer="91"/>
<wire x1="22.86" y1="91.44" x2="22.86" y2="53.34" width="0.1524" layer="91"/>
<wire x1="22.86" y1="53.34" x2="2.54" y2="53.34" width="0.1524" layer="91"/>
</segment>
</net>
<net name="IFB" class="0">
<segment>
<pinref part="JP2" gate="G$1" pin="4"/>
<wire x1="2.54" y1="55.88" x2="20.32" y2="55.88" width="0.1524" layer="91"/>
<wire x1="20.32" y1="55.88" x2="20.32" y2="93.98" width="0.1524" layer="91"/>
<pinref part="U1" gate="G$1" pin="IFB"/>
<wire x1="20.32" y1="93.98" x2="60.96" y2="93.98" width="0.1524" layer="91"/>
<wire x1="60.96" y1="93.98" x2="60.96" y2="86.36" width="0.1524" layer="91"/>
</segment>
</net>
<net name="IN" class="0">
<segment>
<pinref part="JP2" gate="G$1" pin="5"/>
<pinref part="U1" gate="G$1" pin="IN"/>
<wire x1="38.1" y1="71.12" x2="17.78" y2="71.12" width="0.1524" layer="91"/>
<wire x1="17.78" y1="71.12" x2="17.78" y2="58.42" width="0.1524" layer="91"/>
<wire x1="17.78" y1="58.42" x2="2.54" y2="58.42" width="0.1524" layer="91"/>
</segment>
</net>
<net name="GND" class="0">
<segment>
<pinref part="JP2" gate="G$1" pin="6"/>
<pinref part="U1" gate="G$1" pin="GND"/>
<wire x1="55.88" y1="45.72" x2="55.88" y2="43.18" width="0.1524" layer="91"/>
<wire x1="55.88" y1="43.18" x2="15.24" y2="43.18" width="0.1524" layer="91"/>
<wire x1="15.24" y1="43.18" x2="15.24" y2="60.96" width="0.1524" layer="91"/>
<wire x1="15.24" y1="60.96" x2="2.54" y2="60.96" width="0.1524" layer="91"/>
</segment>
</net>
<net name="!PGOOD" class="0">
<segment>
<pinref part="JP2" gate="G$1" pin="7"/>
<pinref part="U1" gate="G$1" pin="!PGOOD"/>
<wire x1="83.82" y1="60.96" x2="86.36" y2="60.96" width="0.1524" layer="91"/>
<wire x1="86.36" y1="60.96" x2="86.36" y2="40.64" width="0.1524" layer="91"/>
<wire x1="86.36" y1="40.64" x2="12.7" y2="40.64" width="0.1524" layer="91"/>
<wire x1="12.7" y1="40.64" x2="12.7" y2="63.5" width="0.1524" layer="91"/>
<wire x1="12.7" y1="63.5" x2="2.54" y2="63.5" width="0.1524" layer="91"/>
</segment>
</net>
<net name="BSTOP" class="0">
<segment>
<pinref part="JP2" gate="G$1" pin="8"/>
<wire x1="2.54" y1="66.04" x2="15.24" y2="66.04" width="0.1524" layer="91"/>
<wire x1="15.24" y1="66.04" x2="15.24" y2="63.5" width="0.1524" layer="91"/>
<pinref part="U1" gate="G$1" pin="BSTOP"/>
<wire x1="15.24" y1="63.5" x2="38.1" y2="63.5" width="0.1524" layer="91"/>
</segment>
</net>
<net name="STAT2" class="0">
<segment>
<pinref part="JP1" gate="G$1" pin="1"/>
<pinref part="U1" gate="G$1" pin="STAT2"/>
<wire x1="38.1" y1="60.96" x2="35.56" y2="60.96" width="0.1524" layer="91"/>
<wire x1="35.56" y1="60.96" x2="35.56" y2="73.66" width="0.1524" layer="91"/>
<wire x1="35.56" y1="73.66" x2="2.54" y2="73.66" width="0.1524" layer="91"/>
</segment>
</net>
<net name="STAT1" class="0">
<segment>
<pinref part="JP1" gate="G$1" pin="2"/>
<wire x1="2.54" y1="76.2" x2="88.9" y2="76.2" width="0.1524" layer="91"/>
<wire x1="88.9" y1="76.2" x2="88.9" y2="63.5" width="0.1524" layer="91"/>
<pinref part="U1" gate="G$1" pin="STAT1"/>
<wire x1="88.9" y1="63.5" x2="83.82" y2="63.5" width="0.1524" layer="91"/>
</segment>
</net>
<net name="PRE_CHG" class="0">
<segment>
<pinref part="JP1" gate="G$1" pin="3"/>
<pinref part="U1" gate="G$1" pin="PRE_CHG"/>
<wire x1="83.82" y1="71.12" x2="91.44" y2="71.12" width="0.1524" layer="91"/>
<wire x1="91.44" y1="71.12" x2="91.44" y2="78.74" width="0.1524" layer="91"/>
<wire x1="91.44" y1="78.74" x2="2.54" y2="78.74" width="0.1524" layer="91"/>
</segment>
</net>
<net name="CE" class="0">
<segment>
<pinref part="JP1" gate="G$1" pin="4"/>
<wire x1="2.54" y1="81.28" x2="93.98" y2="81.28" width="0.1524" layer="91"/>
<wire x1="93.98" y1="81.28" x2="93.98" y2="68.58" width="0.1524" layer="91"/>
<pinref part="U1" gate="G$1" pin="CE"/>
<wire x1="93.98" y1="68.58" x2="83.82" y2="68.58" width="0.1524" layer="91"/>
</segment>
</net>
<net name="VFB" class="0">
<segment>
<pinref part="JP1" gate="G$1" pin="5"/>
<pinref part="U1" gate="G$1" pin="VFB"/>
<wire x1="83.82" y1="66.04" x2="96.52" y2="66.04" width="0.1524" layer="91"/>
<wire x1="96.52" y1="66.04" x2="96.52" y2="83.82" width="0.1524" layer="91"/>
<wire x1="96.52" y1="83.82" x2="2.54" y2="83.82" width="0.1524" layer="91"/>
</segment>
</net>
<net name="COMP" class="0">
<segment>
<pinref part="JP1" gate="G$1" pin="6"/>
<wire x1="2.54" y1="86.36" x2="17.78" y2="86.36" width="0.1524" layer="91"/>
<wire x1="17.78" y1="86.36" x2="17.78" y2="96.52" width="0.1524" layer="91"/>
<wire x1="17.78" y1="96.52" x2="63.5" y2="96.52" width="0.1524" layer="91"/>
<wire x1="63.5" y1="96.52" x2="63.5" y2="43.18" width="0.1524" layer="91"/>
<wire x1="63.5" y1="43.18" x2="66.04" y2="43.18" width="0.1524" layer="91"/>
<pinref part="U1" gate="G$1" pin="COMP"/>
<wire x1="66.04" y1="43.18" x2="66.04" y2="45.72" width="0.1524" layer="91"/>
</segment>
</net>
<net name="DRVE" class="0">
<segment>
<pinref part="JP1" gate="G$1" pin="7"/>
<pinref part="U1" gate="G$1" pin="DRVE"/>
<wire x1="71.12" y1="86.36" x2="71.12" y2="99.06" width="0.1524" layer="91"/>
<wire x1="71.12" y1="99.06" x2="15.24" y2="99.06" width="0.1524" layer="91"/>
<wire x1="15.24" y1="99.06" x2="15.24" y2="88.9" width="0.1524" layer="91"/>
<wire x1="15.24" y1="88.9" x2="2.54" y2="88.9" width="0.1524" layer="91"/>
</segment>
</net>
<net name="DRVC" class="0">
<segment>
<pinref part="JP1" gate="G$1" pin="8"/>
<wire x1="2.54" y1="91.44" x2="12.7" y2="91.44" width="0.1524" layer="91"/>
<wire x1="12.7" y1="91.44" x2="12.7" y2="101.6" width="0.1524" layer="91"/>
<pinref part="U1" gate="G$1" pin="DRVC"/>
<wire x1="12.7" y1="101.6" x2="68.58" y2="101.6" width="0.1524" layer="91"/>
<wire x1="68.58" y1="101.6" x2="68.58" y2="86.36" width="0.1524" layer="91"/>
</segment>
</net>
</nets>
</sheet>
</sheets>
</schematic>
</drawing>
</eagle>
